<?xml version="1.0" encoding="UTF-8" standalone="no"?>
<svg
   xmlns:dc="http://purl.org/dc/elements/1.1/"
   xmlns:cc="http://creativecommons.org/ns#"
   xmlns:rdf="http://www.w3.org/1999/02/22-rdf-syntax-ns#"
   xmlns:svg="http://www.w3.org/2000/svg"
   xmlns="http://www.w3.org/2000/svg"
   xmlns:sodipodi="http://sodipodi.sourceforge.net/DTD/sodipodi-0.dtd"
   xmlns:inkscape="http://www.inkscape.org/namespaces/inkscape"
   width="100mm"
   height="100mm"
   viewBox="0 0 100 100"
   version="1.1"
   id="svg8"
   inkscape:version="1.0 (4035a4fb49, 2020-05-01)"
   sodipodi:docname="A.svg"
   inkscape:export-filename="C:\Users\victor\Desktop\Evelyn\Aster Logo\A.png"
   inkscape:export-xdpi="66.040001"
   inkscape:export-ydpi="66.040001">
  <defs
     id="defs2" />
  <sodipodi:namedview
     id="base"
     pagecolor="#ffffff"
     bordercolor="#666666"
     borderopacity="1.0"
     inkscape:pageopacity="0.0"
     inkscape:pageshadow="2"
     inkscape:zoom="0.7"
     inkscape:cx="267.72473"
     inkscape:cy="9.2223075"
     inkscape:document-units="mm"
     inkscape:current-layer="layer1"
     inkscape:document-rotation="0"
     showgrid="false"
     inkscape:window-width="1920"
     inkscape:window-height="1027"
     inkscape:window-x="1592"
     inkscape:window-y="113"
     inkscape:window-maximized="1"
     units="mm"
     height="100in" />
  <metadata
     id="metadata5">
    <rdf:RDF>
      <cc:Work
         rdf:about="">
        <dc:format>image/svg+xml</dc:format>
        <dc:type
           rdf:resource="http://purl.org/dc/dcmitype/StillImage" />
        <dc:title />
      </cc:Work>
    </rdf:RDF>
  </metadata>
  <g
     inkscape:label="Layer 1"
     inkscape:groupmode="layer"
     id="layer1"
     transform="translate(-57.473799,-120.95239)">
    <g
       style="font-size:93.7381px;line-height:1.25;font-family:Demode-Fixed;-inkscape-font-specification:Demode-Fixed;fill:#515979;fill-opacity:1;stroke-width:2.34346"
       id="text835"
       aria-label="A">
      <path
         id="path840"
         style="fill:#515979;fill-opacity:1;stroke-width:2.34346"
         d="m 118.0468,141.75078 q 5.95017,15.47045 14.73812,38.0811 l 14.73811,37.98956 h -4.0278 l -17.75898,-17.66743 h 4.21089 l -29.47624,-76.07067 17.5759,17.66744 q 0,0 0,0 z M 81.430352,174.9802 q 6.957125,0 17.301271,0 h 17.301267 l 6.77404,17.57589 H 98.914705 l -9.794899,25.26535 H 85.275079 L 67.424562,200.15401 h 4.210892 l 9.794898,-25.17381 q 0,0 0,0 z m 29.476238,-13.18192 q -0.73233,1.92236 -1.83082,4.6686 l -1.73928,4.66859 H 82.986551 l 15.745072,-40.82733 12.174967,31.49014 q 0,0 0,0 z" />
    </g>
  </g>
</svg>
